<?xml version="1.0" encoding="UTF-8"?>
<model ref="r:2393199a-3d82-46f9-b078-953ee8681cd2(de.thb.openapidsl.copy.sandbox)">
  <persistence version="9" />
  <languages>
    <use id="29d429a2-0531-4919-8e80-6706b89fb3b7" name="de.thb.openapidsl.copy" version="0" />
  </languages>
  <imports />
  <registry />
</model>

